^C:\USERS\100526516\DOCUMENTS\PRACTICAL EXAM\XBOX360TEST\XBOX360TEST\CXBOXCONTROLLER.CPP|C:\USERS\100526516\DOCUMENTS\PRACTICAL EXAM\XBOX360TEST\XBOX360TEST\MAIN.CPP
C:\USERS\100526516\DOCUMENTS\PRACTICAL EXAM\XBOX360TEST\XBOX360TEST\RELEASE\VC141.PDB
C:\USERS\100526516\DOCUMENTS\PRACTICAL EXAM\XBOX360TEST\XBOX360TEST\RELEASE\MAIN.OBJ
C:\USERS\100526516\DOCUMENTS\PRACTICAL EXAM\XBOX360TEST\XBOX360TEST\RELEASE\CXBOXCONTROLLER.OBJ
^C:\USERS\100526516\DOCUMENTS\PRACTICAL EXAM\XBOX360TEST\XBOX360TEST\CXBOXCONTROLLER.CPP
C:\USERS\100526516\DOCUMENTS\PRACTICAL EXAM\XBOX360TEST\XBOX360TEST\RELEASE\VC141.PDB
^C:\USERS\100526516\DOCUMENTS\PRACTICAL EXAM\XBOX360TEST\XBOX360TEST\MAIN.CPP
C:\USERS\100526516\DOCUMENTS\PRACTICAL EXAM\XBOX360TEST\XBOX360TEST\RELEASE\VC141.PDB
C:\USERS\100526516\DOCUMENTS\PRACTICAL EXAM\XBOX360TEST\XBOX360TEST\RELEASE\MAIN.OBJ
