#Command: "C:\Program Files (x86)\Microsoft Visual Studio\2017\Professional\VC\Tools\MSVC\14.11.25503\bin\HostX86\x64\link.exe" /ERRORREPORT:PROMPT @C:\Users\100526516\AppData\Local\Temp\tmp8f4c1d1448ad40f1a968c44aac10fc4f.rsp /incremental /nologo /fullbuild
^C:\USERS\100526516\DOCUMENTS\PRACTICAL EXAM\XBOX360TEST\XBOX360TEST\X64\RELEASE\CXBOXCONTROLLER.OBJ|C:\USERS\100526516\DOCUMENTS\PRACTICAL EXAM\XBOX360TEST\XBOX360TEST\X64\RELEASE\MAIN.OBJ
C:\USERS\100526~1\APPDATA\LOCAL\TEMP\LNK{B14C33C4-3621-44F9-88BB-7EB93D365267}.TMP
