^C:\USERS\100526516\DOCUMENTS\PRACTICAL EXAM\XBOX360TEST\XBOX360TEST\X64\RELEASE\CXBOXCONTROLLER.OBJ|C:\USERS\100526516\DOCUMENTS\PRACTICAL EXAM\XBOX360TEST\XBOX360TEST\X64\RELEASE\MAIN.OBJ
C:\USERS\100526516\DOCUMENTS\PRACTICAL EXAM\XBOX360TEST\X64\RELEASE\XBOX360TEST.DLL
C:\USERS\100526516\DOCUMENTS\PRACTICAL EXAM\XBOX360TEST\X64\RELEASE\XBOX360TEST.ILK
C:\USERS\100526516\DOCUMENTS\PRACTICAL EXAM\XBOX360TEST\X64\RELEASE\XBOX360TEST.PDB
