#Command: "C:\Program Files (x86)\Microsoft Visual Studio\2017\Professional\VC\Tools\MSVC\14.11.25503\bin\HostX86\x64\link.exe" /ERRORREPORT:PROMPT @C:\Users\100526516\AppData\Local\Temp\tmpf08f2d924d58481b826c6bb0cf2bd3cf.rsp /incremental /nologo /fullbuild
^C:\USERS\100526516\DOCUMENTS\PRACTICAL EXAM\XBOX360TEST\XBOX360TEST\X64\RELEASE\CXBOXCONTROLLER.OBJ|C:\USERS\100526516\DOCUMENTS\PRACTICAL EXAM\XBOX360TEST\XBOX360TEST\X64\RELEASE\MAIN.OBJ
C:\USERS\100526~1\APPDATA\LOCAL\TEMP\LNK{9F07166A-5814-4BAB-BBD0-037649F57AFB}.TMP
